; Engine configuration file.
; It's best edited using the editor UI and not directly,
; since the parameters that go here are not all obvious.
;
; Format:
;   [section] ; section goes between []
;   param=value ; assign values to parameters

config_version=4

_global_script_classes=[ {
"base": "Panel",
"class": "MonitorPlotPanel",
"language": "GDScript",
"path": "res://PerfMonitor/MonitorPlotPanel.gd"
} ]
_global_script_class_icons={
"MonitorPlotPanel": ""
}

[application]

config/name="Pruebas25d"
run/main_scene="res://Test.tscn"
config/icon="res://icon.png"

[display]

window/size/width=960
window/size/height=540
window/size/test_width=480
window/size/test_height=270
window/stretch/mode="viewport"
window/stretch/aspect="keep"

[rendering]

environment/default_environment="res://default_env.tres"
