[gd_scene load_steps=4 format=2]

[ext_resource path="res://Asset2/tree.png" type="Texture" id=1]
[ext_resource path="res://Asset2/tree.obj" type="ArrayMesh" id=2]

[sub_resource type="SpatialMaterial" id=1]
albedo_texture = ExtResource( 1 )

[node name="tree" type="MeshInstance"]
transform = Transform( 0.3, 0, 0, 0, 0.3, 0, 0, 0, 0.3, 0.0649486, -0.573902, 2.74986 )
mesh = ExtResource( 2 )
material/0 = SubResource( 1 )
